Decomposing and Smoothing Soccer Spatial Tendencies
…
And if you prefer numbers instead of a chart, see the first 10 rows below.

grid_xy_yards

## # A tibble: 600 x 5
##     idx     x      y next_y next_x
##   <int> <dbl>  <dbl>  <dbl>  <dbl>
## 1     1     0  0      4.211  4.138
## 2     2     0  4.211  8.421  4.138
## 3     3     0  8.421 12.63   4.138
## 4     4     0 12.63  16.84   4.138
## 5     5     0 16.84  21.05   4.138
## 6     6     0 21.05  25.26   4.138
## 7     7     0 25.26  29.47   4.138
## 8     8     0 29.47  33.68   4.138
## 9     9     0 33.68  37.89   4.138
## 10    10    0 37.89  42.11   4.138
## # ... with 590 more rows
…
The index idx is important! This will come back into play when we do the NNMF procedure, at which point we’ll “flatten” out our x-y pairs into a 1-d format.

Ok, on to the actual data joining.

events_dt <- events %>% drop_na() %>% data.table::as.data.table()
grid_xy_yards_dt <- grid_xy_yards %>% data.table::as.data.table()

# We don't even have to load `{data.table}` for this to work!
events_binned <-
  events_dt[grid_xy_yards_dt, on=.(x > x, x <= next_x, y >= y, y < next_y)] %>% 
  as_tibble() %>% 
  select(player_id, idx, x, y)
events_binned

## # A tibble: 224,038 x 4
##    player_id   idx     x     y
##        <int> <int> <dbl> <dbl>
##  1      5462     1     0     0
##  2      5467     1     0     0
##  3      5488     1     0     0
##  4      3632     1     0     0
##  5      5576     1     0     0
##  6      5595     1     0     0
##  7      5263     1     0     0
##  8      4063     1     0     0
##  9      5231     1     0     0
## 10      5231     1     0     0
## # ... with 224,028 more rows
…
decomp_smooth <-
  decomp %>% 
  nest(data = -c(dimension)) %>% 
  # `sigma` passed into `...` of `smoothen_component()`. (`data` passed as first argument.)
  mutate(data = map(data, smoothen_component, sigma = 1.5)) %>% 
  unnest(data)
decomp_smooth

## # A tibble: 18,000 x 8
##    dimension    value   idx     x     y next_y next_x     frac
##        <int>    <dbl> <int> <dbl> <dbl>  <dbl>  <dbl>    <dbl>
##  1         1 0.002191     1     0 68     4.211  4.138 0.004569
##  2         1 0.004843     2     0 64.42  8.421  4.138 0.01064 
##  3         1 0.008334     3     0 60.84 12.63   4.138 0.01863 
##  4         1 0.01130      4     0 57.26 16.84   4.138 0.02541 
##  5         1 0.01258      5     0 53.68 21.05   4.138 0.02834 
##  6         1 0.01208      6     0 50.11 25.26   4.138 0.02719 
##  7         1 0.01033      7     0 46.53 29.47   4.138 0.02319 
##  8         1 0.008165     8     0 42.95 33.68   4.138 0.01824 
##  9         1 0.006156     9     0 39.37 37.89   4.138 0.01364 
## 10         1 0.004425    10     0 35.79 42.11   4.138 0.009680
## # ... with 17,990 more rows
…
