Tony’s Blog - Estimating Shooting Performance Unlikeliness
…
    .by = c(player_id, season_end_year), 
    shots = dplyr::n(),
    dplyr::across(c(g, xg), sum)
  ) |> 
  dplyr::mutate(
    o = g / xg
  ) |> 
  dplyr::left_join(
    player_name_mapping,
    by = dplyr::join_by(player_id)
  ) |> 
  dplyr::relocate(player, .after = player_id) |> 
  dplyr::arrange(player_id, season_end_year)
player_season_np_shots
#> # A tibble: 15,317 × 7
#>    player_id player          season_end_year shots     g    xg     o
#>    <chr>     <chr>                     <int> <int> <int> <dbl> <dbl>
#>  1 0000acda  Marco Benassi              2018    70     5  4.01 1.25 
#>  2 0000acda  Marco Benassi              2019    59     7  5.61 1.25 
#>  3 0000acda  Marco Benassi              2020    20     1  1.01 0.990
#>  4 0000acda  Marco Benassi              2022    10     0  0.99 0    
#>  5 0000acda  Marco Benassi              2023    19     0  1.35 0    
#>  6 000b3da6  Manuel Iturra              2018     2     0  0.41 0    
#>  7 00242715  Moussa Niakhate            2018    16     0  1.43 0    
#>  8 00242715  Moussa Niakhate            2019    10     1  1.5  0.667
#>  9 00242715  Moussa Niakhate            2020    11     1  1.02 0.980
#> 10 00242715  Moussa Niakhate            2021     9     2  1.56 1.28 
#> # ℹ 15,307 more rows
…
