Tony’s Blog - Measuring Shooting Overperformance in Soccer
…
shots <- raw_shots |> 
  tibble::as_tibble() |> 
  dplyr::filter(
    season %in% c(2016L, 2017L), ## 2016/17 and 2017/18 seasons
    situation != 'DirectFreeKick' ## "excluding free-kicks" in the blog post
  ) |> 
  dplyr::arrange(id) |> 
  dplyr::transmute(
    id,
    player,
    xg = x_g,
    g = as.integer(result == 'Goal')
  )
shots
#> # A tibble: 19,047 × 4
#>        id player               xg     g
#>     <dbl> <chr>             <dbl> <int>
#>  1 112088 Aaron Ramsey    0.0695      0
#>  2 112089 Nathaniel Clyne 0.0293      0
#>  3 112090 Aaron Ramsey    0.00734     0
#>  4 112091 Roberto Firmino 0.0856      0
#>  5 112092 Roberto Firmino 0.0441      0
#>  6 112093 Sadio Mané      0.0607      0
#>  7 112094 Ragnar Klavan   0.0742      0
#>  8 112095 Theo Walcott    0.761       0
#>  9 112096 Theo Walcott    0.0721      1
#> 10 112097 Roberto Firmino 0.0241      0
#> # ℹ 19,037 more rows
Above was pulling in every record of shots, with 1 row per shot. Now we aggregate to the player level, such that we have one row per player.

Code

shots_by_player <- shots |> 
  dplyr::group_by(player) |> 
  dplyr::summarize(
    shots = dplyr::n(),
    dplyr::across(c(g, xg), sum)
  ) |> 
  dplyr::ungroup() |> 
  dplyr::mutate(raw_ratio = g / xg) |> 
  dplyr::arrange(dplyr::desc(shots))
shots_by_player
#> # A tibble: 588 × 5
#>    player            shots     g    xg raw_ratio
#>    <chr>             <int> <int> <dbl>     <dbl>
#>  1 Harry Kane          293    59  46.7     1.26 
#>  2 Sergio Agüero       234    41  41.2     0.994
#>  3 Christian Eriksen   229    18  16.1     1.12 
#>  4 Alexis Sánchez      217    33  29.1     1.13 
#>  5 Romelu Lukaku       196    41  32.1     1.28 
#>  6 Roberto Firmino     184    26  21.1     1.23 
#>  7 Kevin De Bruyne     179    14  12.2     1.15 
#>  8 Salomón Rondón      171    15  16.2     0.924
#>  9 Paul Pogba          168    11  14.3     0.768
#> 10 Christian Benteke   164    18  28.5     0.631
#> # ℹ 578 more rows
…
adj_ratio_by_player <- shots_by_player |> 
  tidyr::unnest_wider(
    adj_ratio, 
    names_sep = '_'
  ) |> 
  dplyr::arrange(dplyr::desc(adj_ratio_mean))
adj_ratio_by_player
#> # A tibble: 588 × 7
#>    player            shots     g    xg raw_ratio adj_ratio_mean adj_ratio_sd
#>    <chr>             <int> <int> <dbl>     <dbl>          <dbl>        <dbl>
#>  1 Fernando Llorente    57    16  9.19      1.74           1.40        0.281
#>  2 Philippe Coutinho   160    20 12.5       1.60           1.37        0.256
#>  3 Shkodran Mustafi     37     5  1.82      2.75           1.34        0.357
#>  4 Pascal Groß          43     7  3.34      2.10           1.34        0.334
#>  5 Ryan Fraser          55     8  4.09      1.95           1.34        0.324
#>  6 Eden Hazard         148    28 19.2       1.45           1.33        0.219
#>  7 James McArthur       53    10  5.93      1.69           1.31        0.299
#>  8 Charlie Daniels      39     5  2.18      2.30           1.30        0.346
#>  9 Xherdan Shaqiri     117    12  7.61      1.58           1.29        0.282
#> 10 Andy Carroll         67    10  6.09      1.64           1.29        0.296
#> # ℹ 578 more rows
…
