…
## but when comparing understat with fotmob, we'll need to limit the seasons to just
##   those that both sources have
understat_shots <- all_understat_shots |> 
  dplyr::filter(season >= 2020)
understat_shots
#> # A tibble: 19,010 × 7
#>    match_id season  date       is_home     xg team    opponent
#>       <dbl> <chr>   <date>     <lgl>    <dbl> <chr>   <chr>   
#>  1    14086 2020/21 2020-09-12 FALSE   0.0644 Arsenal Fulham  
#>  2    14086 2020/21 2020-09-12 FALSE   0.649  Arsenal Fulham  
#>  3    14086 2020/21 2020-09-12 FALSE   0.758  Arsenal Fulham  
#>  4    14086 2020/21 2020-09-12 FALSE   0.110  Arsenal Fulham  
#>  5    14086 2020/21 2020-09-12 FALSE   0.0572 Arsenal Fulham  
#>  6    14086 2020/21 2020-09-12 FALSE   0.136  Arsenal Fulham  
#>  7    14086 2020/21 2020-09-12 FALSE   0.0817 Arsenal Fulham  
#>  8    14086 2020/21 2020-09-12 FALSE   0.506  Arsenal Fulham  
#>  9    14086 2020/21 2020-09-12 FALSE   0.0943 Arsenal Fulham  
#> 10    14086 2020/21 2020-09-12 FALSE   0.0526 Arsenal Fulham  
#> # … with 19,000 more rows
```
…
  tidyr::drop_na(season) |> 
  dplyr::transmute(
    match_id,
    season,
    date,
    home_team,
    away_team,
    is_home = team_id == home_team_id,
    ## some shots with NAs for some reason
    xg = coalesce(expected_goals, 0)
  ) |>
  rename_teams('fotmob') |> 
  dplyr::arrange(season, date, team)
fotmob_shots
#> # A tibble: 19,013 × 7
#>    match_id season  date       is_home     xg team    opponent
#>       <int> <chr>   <date>     <lgl>    <dbl> <chr>   <chr>   
#>  1  3411352 2020/21 2020-09-12 FALSE   0.0602 Arsenal Fulham  
#>  2  3411352 2020/21 2020-09-12 FALSE   0.737  Arsenal Fulham  
#>  3  3411352 2020/21 2020-09-12 FALSE   0.845  Arsenal Fulham  
#>  4  3411352 2020/21 2020-09-12 FALSE   0.0879 Arsenal Fulham  
#>  5  3411352 2020/21 2020-09-12 FALSE   0.0443 Arsenal Fulham  
#>  6  3411352 2020/21 2020-09-12 FALSE   0.131  Arsenal Fulham  
#>  7  3411352 2020/21 2020-09-12 FALSE   0.0916 Arsenal Fulham  
#>  8  3411352 2020/21 2020-09-12 FALSE   0.310  Arsenal Fulham  
#>  9  3411352 2020/21 2020-09-12 FALSE   0.0531 Arsenal Fulham  
#> 10  3411352 2020/21 2020-09-12 FALSE   0.0631 Arsenal Fulham  
#> # … with 19,003 more rows
```
…
understat_permuted_xg <- understat_shots |> calculate_permuted_xg()
fotmob_permuted_xg <- fotmob_shots |> calculate_permuted_xg()

## just one of the variables. the other one looks the same, with different values for prob
understat_permuted_xg
#> # A tibble: 20,530 × 8
#>    match_id season  date       is_home team    opponent       prob     g
#>       <dbl> <chr>   <date>     <lgl>   <chr>   <chr>         <dbl> <int>
#>  1    14086 2020/21 2020-09-12 FALSE   Arsenal Fulham   0.0180         0
#>  2    14086 2020/21 2020-09-12 FALSE   Arsenal Fulham   0.124          1
#>  3    14086 2020/21 2020-09-12 FALSE   Arsenal Fulham   0.298          2
#>  4    14086 2020/21 2020-09-12 FALSE   Arsenal Fulham   0.320          3
#>  5    14086 2020/21 2020-09-12 FALSE   Arsenal Fulham   0.172          4
#>  6    14086 2020/21 2020-09-12 FALSE   Arsenal Fulham   0.0543         5
#>  7    14086 2020/21 2020-09-12 FALSE   Arsenal Fulham   0.0110         6
#>  8    14086 2020/21 2020-09-12 FALSE   Arsenal Fulham   0.00150        7
#>  9    14086 2020/21 2020-09-12 FALSE   Arsenal Fulham   0.000141       8
#> 10    14086 2020/21 2020-09-12 FALSE   Arsenal Fulham   0.00000917     9
#> # … with 20,520 more rows
```
…
understat_xpts_by_match <- understat_permuted_xg |> summarize_permuted_xg_by_match()
fotmob_xpts_by_match <- fotmob_permuted_xg |> summarize_permuted_xg_by_match()

## just one of the variables. the other looks the same, with different values for prob* and xpts
understat_xpts_by_match |> 
  dplyr::select(-c(season, match_id, is_home)) |>
  dplyr::mutate(dplyr::across(c(dplyr::starts_with('prob_'), xpts), round, 2))
#> # A tibble: 1,520 × 7
#>    date       team              opponent          prob_d…¹ prob_…² prob_…³  xpts
#>    <date>     <chr>             <chr>                <dbl>   <dbl>   <dbl> <dbl>
#>  1 2020-09-12 Arsenal           Fulham                0.03    0.97    0     2.93
#>  2 2020-09-12 Fulham            Arsenal               0.03    0       0.97  0.04
#>  3 2020-09-12 Southampton       Crystal Palace        0.3     0.31    0.39  1.22
#>  4 2020-09-12 Crystal Palace    Southampton           0.3     0.39    0.31  1.48
#>  5 2021-01-12 Manchester United Burnley               0.3     0.52    0.18  1.86
#>  6 2021-01-12 Burnley           Manchester United     0.3     0.18    0.52  0.84
#>  7 2021-01-20 Aston Villa       Manchester City       0.04    0.01    0.95  0.07
#>  8 2021-01-20 Manchester City   Aston Villa           0.04    0.95    0.01  2.89
#>  9 2020-09-12 Leeds United      Liverpool             0.03    0       0.97  0.04
#> 10 2020-09-12 Liverpool         Leeds United          0.03    0.97    0     2.93
#> # … with 1,510 more rows, and abbreviated variable names ¹​prob_draw, ²​prob_win,
#> #   ³​prob_lose
```
…
raw_understat_xpts_by_match <- all_raw_understat_xpts_by_match |> 
  dplyr::inner_join(
    understat_xpts_by_match |> dplyr::select(season, date, team, xpts),
    by = c('season', 'date', 'team')
  ) |> 
  mutate(
    xptsd = raw_xpts - xpts
  ) |> 
  arrange(season, date, team)
raw_understat_xpts_by_match
#> # A tibble: 1,520 × 9
#>    season  date       team            result   pts raw_x…¹    xg   xpts    xptsd
#>    <chr>   <date>     <chr>           <chr>  <int>   <dbl> <dbl>  <dbl>    <dbl>
#>  1 2020/21 2020-09-12 Arsenal         w          3  2.89   2.16  2.93   -3.40e-2
#>  2 2020/21 2020-09-12 Crystal Palace  w          3  1.48   1.40  1.48   -1.08e-3
#>  3 2020/21 2020-09-12 Fulham          l          0  0.0587 0.126 0.0405  1.82e-2
#>  4 2020/21 2020-09-12 Leeds United    l          0  0.0434 0.270 0.0440 -5.77e-4
#>  5 2020/21 2020-09-12 Liverpool       w          3  2.93   3.15  2.93    1.03e-3
#>  6 2020/21 2020-09-12 Newcastle       w          3  2.05   1.66  2.03    1.86e-2
#>  7 2020/21 2020-09-12 Southampton     l          0  1.22   1.26  1.22   -5.44e-4
#>  8 2020/21 2020-09-12 West Ham United l          0  0.700  0.861 0.717  -1.71e-2
#>  9 2020/21 2020-09-13 Everton         w          3  1.74   1.27  1.74    5.98e-3
#> 10 2020/21 2020-09-13 Leicester City  w          3  2.91   2.96  2.91    6.14e-4
#> # … with 1,510 more rows, and abbreviated variable name ¹​raw_xpts
…
