…
```{r}
#| label: save-matches
PROJ_DIR <- 'posts/probability-calibration'
qs::qsave(matches, file.path(PROJ_DIR, 'matches.qs'))
```

```{r}
#| label: show-matches
#| code-fold: false
matches
#> # A tibble: 1,358 × 6
#>    date       team1               team2             target .pred_yes .pred_no
#>    <date>     <chr>               <chr>             <fct>      <dbl>    <dbl>
#>  1 2016-07-09 Liverpool Women     Reading           yes        0.439    0.561
#>  2 2016-07-10 Arsenal Women       Notts County Lad… yes        0.357    0.643
#>  3 2016-07-10 Chelsea FC Women    Birmingham City   no         0.480    0.520
#>  4 2016-07-16 Liverpool Women     Notts County Lad… no         0.429    0.571
#>  5 2016-07-17 Chelsea FC Women    Arsenal Women     no         0.412    0.588
#>  6 2016-07-24 Reading             Birmingham City   no         0.382    0.618
#>  7 2016-07-24 Notts County Ladies Manchester City … no         0.308    0.692
#>  8 2016-07-31 Reading             Notts County Lad… no         0.407    0.593
#>  9 2016-07-31 Arsenal Women       Liverpool Women   no         0.435    0.565
#> 10 2016-08-03 Reading             Manchester City … no         0.306    0.694
#> # ℹ 1,348 more rows
```
…
