…
    .by = c(player_id, season_end_year), 
    shots = dplyr::n(),
    dplyr::across(c(g, xg), sum)
  ) |> 
  dplyr::mutate(
    o = g / xg
  ) |> 
  dplyr::left_join(
    player_name_mapping,
    by = dplyr::join_by(player_id)
  ) |> 
  dplyr::relocate(player, .after = player_id) |> 
  dplyr::arrange(player_id, season_end_year)
player_season_np_shots
#> # A tibble: 15,317 × 7
#>    player_id player          season_end_year shots     g    xg     o
#>    <chr>     <chr>                     <int> <int> <int> <dbl> <dbl>
#>  1 0000acda  Marco Benassi              2018    70     5  4.01 1.25 
#>  2 0000acda  Marco Benassi              2019    59     7  5.61 1.25 
#>  3 0000acda  Marco Benassi              2020    20     1  1.01 0.990
#>  4 0000acda  Marco Benassi              2022    10     0  0.99 0    
#>  5 0000acda  Marco Benassi              2023    19     0  1.35 0    
#>  6 000b3da6  Manuel Iturra              2018     2     0  0.41 0    
#>  7 00242715  Moussa Niakhate            2018    16     0  1.43 0    
#>  8 00242715  Moussa Niakhate            2019    10     1  1.5  0.667
#>  9 00242715  Moussa Niakhate            2020    11     1  1.02 0.980
#> 10 00242715  Moussa Niakhate            2021     9     2  1.56 1.28 
#> # ℹ 15,307 more rows
```
…
Indeed, the histogram below follows a fairly uniform distribution, with a bit of irregularity at the very edges.

Who exactly is in the edges of the spectrum?

Well, notably, [Manchester City's striker Erling Haaland](https://archive.is/https://theathletic.com/5430355/2024/04/20/erling-haaland-manchester-city-human/) shows up as having the most unlikely outcome for the 2023/24 season using this methodology.

```{r}
#| label: all_resampled_props
#| include: true
#| code-fold: show
#| code-summary: "All output from Approach 1"
all_resampled_props
#> # A tibble: 593 × 6
#>    player              prior_o target_o prior_shots target_shots prop_lte
#>    <chr>                 <dbl>    <dbl>       <int>        <int>    <dbl>
#>  1 Erling Haaland         1.26    0.791         313           98    0.004
#>  2 Amine Harit            1.27    0.262         107           33    0.01 
#>  3 Pierre-Emerick Aub…    1.07    0.606         405           91    0.01 
#>  4 Téji Savanier          1.42    0.282         276           72    0.01 
#>  5 Antonio Sanabria       1.05    0.386         269           47    0.014
#>  6 Alex Baena             1.54    0.348          61           57    0.016
#>  7 Elye Wahi              1.38    0.753         114           47    0.017
#>  8 Kevin Behrens          1.39    0.673          51           52    0.019
#>  9 Ciro Immobile          1.23    0.383         635           41    0.02 
#> 10 Ansu Fati              1.31    0.430         125           34    0.024
#> # ℹ 583 more rows
#> # ℹ Use `print(n = ...)` to see more rows
```
…
