Tony’s Blog - Quantifying Relative Soccer League Strength
…
Arguing about domestic league strength is something that soccer fans seems to never tire of. ([*"Could Messi do it on a cold rainy night in Stoke?"*](https://www.goal.com/en-us/news/what-does-can-they-do-it-on-a-cold-rainy-night-in-stoke-mean/1f7alegnrwfr01i5vj34vak59k)) Many of these conversations are anecdotal, leading to "hot takes" that are unfalsifiable. While we'll probably never move away from these kinds of discussions, we can at least try to inform them with a quantitative approach.

Perhaps the obvious way to do so is to take match results from international tournaments (e.g. Champions League, Europa). But such an approach can be flawed---there's not a large sample, and match results may not be reflective of "true" team strength (e.g. one team may win on xG by a large margin, but lose the game.)

## Methodology

But what if we used an approach rooted in player performance? [I asked myself](https://twitter.com/TonyElHabr/status/1405946557237796871) that very question and came up with the following approach. (Thanks to [Cahnzhi Ye](https://twitter.com/canzhiye) for the data.)

1.  Identify players who played in more than one league within the same season or across consecutive seasons. Calculate the difference in each player's [atomic VAEP](https://arxiv.org/pdf/1802.07127.pdf)[^1] per 90 minutes (VAEP/90) after changing leagues.

[^1]: Valuing Actions by Estimating Probabilities (VAEP) based on the atomic SPADL format.

```{r}
#> # A tibble: 2,462 x 7
#>    Season Player        `League A`        `League B`       `VAEP/90 A` `VAEP/90 B`   Diff.
#>     <dbl> <chr>         <chr>             <chr>                  <dbl>       <dbl>   <dbl>
#>  1   2020 Timo Werner   Bundesliga 1 (Ge~ Premier League ~       1.25        0.638  0.610 
#>  2   2020 Alexander Sø~ Super Lig (Turke~ Bundesliga 1 (G~       1.07        0.773  0.296 
#>  3   2020 Hakim Ziyech  Eredivisie (Neth~ Premier League ~       0.958       0.365  0.593 
#>  4   2020 Nicolás Gonz~ Bundesliga 2 (Ge~ Bundesliga 1 (G~       0.917       0.943 -0.0256
#>  5   2020 Fabian Klos   Bundesliga 2 (Ge~ Bundesliga 1 (G~       0.904       0.547  0.358 
#>  6   2020 Victor Osimh~ Ligue 1 (France)  Serie A (Italy)        0.889       1.01  -0.120 
#>  7   2020 Eldor Shomur~ Premier League (~ Serie A (Italy)        0.882       0.755  0.126 
#>  8   2020 Callum Robin~ Championship (En~ Premier League ~       0.880       0.682  0.198 
#>  9   2020 Jarrod Bowen  Championship (En~ Premier League ~       0.871       0.448  0.423 
#> 10   2020 Aleksandar M~ Championship (En~ Premier League ~       0.866       0.499  0.367 
#> # ... with 2,452 more rows
```

Why VAEP? Theoretically it should capture more about in-game actions (including defense) than other stats such as [xG](https://fbref.com/en/expected-goals-model-explained/), which is biased in favor of attacking players. VAEP is not perfect by any means (e.g. it does not capture off-ball actions), but, in theory, it should be a better measure of overall performance. [^2]

[^2]: [I had a Twitter thread in May 2021 describing how one could use VAEP ratings.](https://twitter.com/TonyElHabr/status/1393553732659519490)

Notably, we give up a little in interpretability in using VAEP, since it's not directly translatable to goals. [^3] The following table of top season-long xG totals since 2012 to contextualize the magnitudes of xG and VAEP.

[^3]: It's closer to [xG+xA](https://www.optasports.com/services/analytics/advanced-metrics/), although the authors might disagree with that as well. It's really best treated separately, which perhaps explains why the authors often using "rating" and "contribution" when referring to VAEP.

```{r}
#> # A tibble: 36,857 x 5
#>    Season Player             Minutes    xG  VAEP
#>     <dbl> <chr>                <dbl> <dbl> <dbl>
#>  1   2015 Lionel Messi          3529  38.1  69.0
#>  2   2016 Luis Suárez           3294  35.6  55.7
#>  3   2018 Robert Lewandowski    2259  35.1  40.2
#>  4   2012 Lionel Messi          3425  32.4  76.2
#>  5   2013 Lionel Messi          2776  31.6  60.0
#>  6   2015 Cristiano Ronaldo     3236  30.8  58.7
#>  7   2018 Mohamed Salah         3080  30.4  50.5
#>  8   2012 Cristiano Ronaldo     3504  30.1  62.7
#>  9   2017 Edin Dzeko            3216  29.8  49.7
#> 10   2020 Robert Lewandowski    2902  29.7  49.2
#> # ... with 36,847 more rows
```
…
2.  Convert the player-level VAEP/90 differences to z-scores by position and age group.

```{r}
#> # A tibble: 2,462 x 7
#>    Season Player      Position `Age Group` `League A`      `League B`    `VAEP/90 Diff. Z`
#>     <dbl> <chr>       <chr>    <chr>       <chr>           <chr>                     <dbl>
#>  1   2020 Timo Werner AM       24<=x<27    Bundesliga 1 (~ Premier Leagu~            2.28 
#>  2   2020 Alexander ~ FW       24<=x<27    Super Lig (Tur~ Bundesliga 1 ~            1.10 
#>  3   2020 Hakim Ziye~ M        27<=x<30    Eredivisie (Ne~ Premier Leagu~            3.20 
#>  4   2020 Nicolás Go~ M        18<=x<24    Bundesliga 2 (~ Bundesliga 1 ~           -0.148
#>  5   2020 Fabian Klos FW       30<=x<36    Bundesliga 2 (~ Bundesliga 1 ~            1.20 
#>  6   2020 Victor Osi~ FW       18<=x<24    Ligue 1 (Franc~ Serie A (Ital~           -0.439
#>  7   2020 Eldor Shom~ FW       24<=x<27    Premier League~ Serie A (Ital~            0.471
#>  8   2020 Callum Rob~ AM       24<=x<27    Championship (~ Premier Leagu~            0.740
#>  9   2020 Jarrod Bow~ AM       18<=x<24    Championship (~ Premier Leagu~            1.89 
#> 10   2020 Aleksandar~ FW       24<=x<27    Championship (~ Premier Leagu~            1.37 
#> # ... with 2,452 more rows
```
…
For hockey/basketball APM, we would say the coefficient estimate represents how much a player contributes relative to an "average" player. We might be tempted to try to interpret these coefficients directly as well. Yes, we can infer the league "power rankings" from just this singular coefficient list (Premier League as the strongest and Bundesliga 2 as the weakest), but there are some issues.

-   We first need to "un-transform" this back to the VAEP/90 scale. (See next step.)

-   Note that this is not a zero-sum situation (even after un-transforming). There is no notion of a matchup between one league and another like there is in hockey/basketball with players on the ice/court. Instead, our data is more analogous to a player playing against themselves (not a set of players versus another set of players).

-   Even if this were a zero-sum type of problem and the model returned some negative coefficient estimates, it's unclear what the intercept (or 0) even means. Does it mean "average"? If so, what is an "average" league?

-   We accounted for minutes played---the "per 90" denominator---prior to subtracting rates (difference in VAEP/90), which is different than how APM works. In APM, the minutes played is directly accounted for in the response variable (net points, divided by possessions).

The take-away here is that we can only interpret the model coefficients on a relative basis.

```{r}
#> # A tibble: 256 x 5
#>    `League A`               `League B`               `Estimate A` `Estimate B` Diff.
#>    <fct>                    <fct>                           <dbl>        <dbl> <dbl>
#>  1 Premier League (England) Premier League (England)        0.975        0.975 0    
#>  2 Premier League (England) La Liga (Spain)                 0.975        0.869 0.107
#>  3 Premier League (England) Ligue 1 (France)                0.975        0.786 0.189
#>  4 Premier League (England) Serie A (Italy)                 0.975        0.738 0.238
#>  5 Premier League (England) Serie A (Brazil)                0.975        0.724 0.252
#>  6 Premier League (England) Primeira Liga (Portugal)        0.975        0.675 0.300
#>  7 Premier League (England) Bundesliga 1 (Germany)          0.975        0.649 0.326
#>  8 Premier League (England) Championship (England)          0.975        0.641 0.334
#>  9 Premier League (England) Super Lig (Turkey)              0.975        0.617 0.358
#> 10 Premier League (England) Premier League (Russia)         0.975        0.485 0.491
#> # ... with 246 more rows
```

4.  "Un-transform" the coefficients of the regression using a "weighted-average" standard deviation and mean from the z-transformations of groups. [^7]

[^7]: "Weighted-average": `Diff. (VAEP/90) = (Diff. * sum(SD * (N * sum(N)))) - sum(Mean * (N * sum(N)))`

Interpretation after this transformation can be a little tricky. The differences between a specified pair of these post-transformed coefficients represents the expected change in an "average" player's VAEP/90 (`Diff. (VAEP/90)`) when moving between the specified leagues.

```{r}
#> # A tibble: 256 x 4
#>    `League A`               `League B`               Diff. `Diff. (VAEP/90)`
#>    <fct>                    <fct>                    <dbl>             <dbl>
#>  1 Premier League (England) Premier League (England) 0                0     
#>  2 Premier League (England) La Liga (Spain)          0.107            0.0166
#>  3 Premier League (England) Ligue 1 (France)         0.189            0.0295
#>  4 Premier League (England) Serie A (Italy)          0.238            0.0371
#>  5 Premier League (England) Serie A (Brazil)         0.252            0.0393
#>  6 Premier League (England) Primeira Liga (Portugal) 0.300            0.0469
#>  7 Premier League (England) Bundesliga 1 (Germany)   0.326            0.0509
#>  8 Premier League (England) Championship (England)   0.334            0.0521
#>  9 Premier League (England) Super Lig (Turkey)       0.358            0.0559
#> 10 Premier League (England) Premier League (Russia)  0.491            0.0766
#> # ... with 246 more rows
```

To interpret these differences as a percentage (so that we can "scale" the properly for a player with a VAEP/90 of 1.5, compared to a player with a lower VAEP/90 rate), we use the median VAEP/90 across all leagues as a "baseline". For example, for Bundesliga -\> Premier League, since the overall median VAEP/90 is 0.305 and the `Diff. (VAEP/90)` between league A and league B is 0.0509, the `% Difference` is 0.0509/0.305 = 17%.

```{r}
#> # A tibble: 256 x 5
#>    `League A`               `League B`               Diff. `Diff. (VAEP/90)` `% Diff.`
#>    <fct>                    <fct>                    <dbl>             <dbl> <chr>    
#>  1 Premier League (England) Premier League (England) 0                0      0%       
#>  2 Premier League (England) La Liga (Spain)          0.107            0.0166 5%       
#>  3 Premier League (England) Ligue 1 (France)         0.189            0.0295 10%      
#>  4 Premier League (England) Serie A (Italy)          0.238            0.0371 12%      
#>  5 Premier League (England) Serie A (Brazil)         0.252            0.0393 13%      
#>  6 Premier League (England) Primeira Liga (Portugal) 0.300            0.0469 15%      
#>  7 Premier League (England) Bundesliga 1 (Germany)   0.326            0.0509 17%      
#>  8 Premier League (England) Championship (England)   0.334            0.0521 17%      
#>  9 Premier League (England) Super Lig (Turkey)       0.358            0.0559 18%      
#> 10 Premier League (England) Premier League (Russia)  0.491            0.0766 25%      
#> # ... with 246 more rows
```
…
