Tony’s Blog - Game state with FBref data
…
agg_gamestate_xgd
#> # A tibble: 87 × 4
#>    team           pre_shot_gamestate  xgd_p90 prop_duration
#>    <chr>          <fct>                 <dbl>         <dbl>
#>  1 Atlanta United Trailing            0.277           0.266
#>  2 Atlanta United Tied               -0.00208         0.385
#>  3 Atlanta United Leading             0.262           0.350
#>  4 Austin FC      Trailing            0.0287          0.271
#>  5 Austin FC      Tied               -0.0978          0.508
#>  6 Austin FC      Leading            -0.474           0.221
#>  7 CF Montréal    Trailing           -1.20            0.376
#>  8 CF Montréal    Tied               -0.388           0.400
#>  9 CF Montréal    Leading             0.327           0.223
#> 10 Charlotte FC   Trailing           -0.0656          0.212
#> # ℹ 77 more rows
…
