Tony’s Blog - Converting nested JSON to a tidy data frame with R
…
One could go on and try some other functions from the {jsonlite} package (or another JSON-related package), but, in my own attempts, I was unable to figure out a nice way of getting a data.frame(). (This is not to say that there is something wrong with the package—I simply could not figure out how to use it to get the result that I wanted.)

So, what to do now? Well, after some struggling, I stumbled upon the following solution to put me on the right path.

Code

df_raw <- enframe(unlist(cont_raw))
df_raw
#| code-fold: show
#> # A tibble: 6,629 x 2
#>    name                     value                   
#>    <chr>                    <chr>                   
#>  1 leagues.id               28                      
#>  2 leagues.uid              s:20~l:28               
#>  3 leagues.name             National Football League
#>  4 leagues.abbreviation     NFL                     
#>  5 leagues.slug             nfl                     
#>  6 leagues.season.year      2018                    
#>  7 leagues.season.startDate 2018-08-02T07:00Z       
#>  8 leagues.season.endDate   2019-02-06T07:59Z       
#>  9 leagues.season.type.id   2                       
#> 10 leagues.season.type.type 2                       
#> # ... with 6,619 more rows

Combining unlist() and tibble::enframe(), we are able to get a (very) long data.frame without any nested elements! Note that the would-have-been-nested elements are joined by “.” in the “name” column, and the values associated with these elements are in the “value” column. (These are the default column names that tibble::enframe() assigns to the tibble that it creates from a list.)

While this tibble is still not in a tidy format—there are variables implicitly stored in the “name” column rather than in their own columns—–it’s in a much more user-friendly format (in my opinion). (e.g The variable "leagues.season.startDate" implicitly encodes three variables—"leagues", "season", and "startDate"—each deserving of their own column.)

Given the format of the implicit variable sin the “name” column, We can use tidyr::separate() to create columns for each.

Code

df_raw %>% separate(name, into = c(paste0("x", 1:10)))
#> Warning: Expected 10 pieces. Missing pieces filled with `NA` in 6629
#> rows [1, 2, 3, 4, 5, 6, 7, 8, 9, 10, 11, 12, 13, 14, 15, 16, 17, 18, 19,
#> 20, ...].
#> # A tibble: 6,629 x 11
#>    x1     x2      x3    x4    x5    x6    x7    x8    x9    x10   value   
#>    <chr>  <chr>   <chr> <chr> <chr> <chr> <chr> <chr> <chr> <chr> <chr>   
#>  1 leagu~ id      <NA>  <NA>  <NA>  <NA>  <NA>  <NA>  <NA>  <NA>  28      
#>  2 leagu~ uid     <NA>  <NA>  <NA>  <NA>  <NA>  <NA>  <NA>  <NA>  s:20~l:~
#>  3 leagu~ name    <NA>  <NA>  <NA>  <NA>  <NA>  <NA>  <NA>  <NA>  Nationa~
#>  4 leagu~ abbrev~ <NA>  <NA>  <NA>  <NA>  <NA>  <NA>  <NA>  <NA>  NFL     
#>  5 leagu~ slug    <NA>  <NA>  <NA>  <NA>  <NA>  <NA>  <NA>  <NA>  nfl     
#>  6 leagu~ season  year  <NA>  <NA>  <NA>  <NA>  <NA>  <NA>  <NA>  2018    
#>  7 leagu~ season  star~ <NA>  <NA>  <NA>  <NA>  <NA>  <NA>  <NA>  2018-08~
#>  8 leagu~ season  endD~ <NA>  <NA>  <NA>  <NA>  <NA>  <NA>  <NA>  2019-02~
#>  9 leagu~ season  type  id    <NA>  <NA>  <NA>  <NA>  <NA>  <NA>  2       
#> 10 leagu~ season  type  type  <NA>  <NA>  <NA>  <NA>  <NA>  <NA>  2       
#> # ... with 6,619 more rows

We get a warning indicating when using separate() because we have “over-estimated” how many columns we will need to create. Note that, with my specification of (dummy) column names with the into argument, I guessed that there we would need 10 columns. Why 10? Because I expected that 10 would be more than I needed, and it’s better to over-estimate and remove the extra columns in a subsequent step than to under-estimate and lose data because there are not enough columns to put the “separated” data in.

We can get rid of the warning by providing an appropriate value for separate()’s fill argument. (Note that "warn" is the default value of the fill argument.)

Code

df_raw %>% separate(name, into = c(paste0("x", 1:10)), fill = "right")
#> # A tibble: 6,629 x 11
#>    x1     x2      x3    x4    x5    x6    x7    x8    x9    x10   value   
#>    <chr>  <chr>   <chr> <chr> <chr> <chr> <chr> <chr> <chr> <chr> <chr>   
#>  1 leagu~ id      <NA>  <NA>  <NA>  <NA>  <NA>  <NA>  <NA>  <NA>  28      
#>  2 leagu~ uid     <NA>  <NA>  <NA>  <NA>  <NA>  <NA>  <NA>  <NA>  s:20~l:~
#>  3 leagu~ name    <NA>  <NA>  <NA>  <NA>  <NA>  <NA>  <NA>  <NA>  Nationa~
#>  4 leagu~ abbrev~ <NA>  <NA>  <NA>  <NA>  <NA>  <NA>  <NA>  <NA>  NFL     
#>  5 leagu~ slug    <NA>  <NA>  <NA>  <NA>  <NA>  <NA>  <NA>  <NA>  nfl     
#>  6 leagu~ season  year  <NA>  <NA>  <NA>  <NA>  <NA>  <NA>  <NA>  2018    
#>  7 leagu~ season  star~ <NA>  <NA>  <NA>  <NA>  <NA>  <NA>  <NA>  2018-08~
#>  8 leagu~ season  endD~ <NA>  <NA>  <NA>  <NA>  <NA>  <NA>  <NA>  2019-02~
#>  9 leagu~ season  type  id    <NA>  <NA>  <NA>  <NA>  <NA>  <NA>  2       
#> 10 leagu~ season  type  type  <NA>  <NA>  <NA>  <NA>  <NA>  <NA>  2       
#> # ... with 6,619 more rows
…
With this number (7) identified, we can now choose the “correct” number of columns to create with separate(). Note that we’ll still be left with lots of NA values (corresponding to rows that don’t have the maximum number of variables). This is expected.

Code

nms_sep <- paste0("name", 1:n_cols_max)
df_sep <- df_raw %>% 
  separate(name, into = nms_sep, sep = rgx_split, fill = "right")
df_sep
#| code-fold: show
#> # A tibble: 6,629 x 8
#>    name1   name2      name3    name4 name5 name6 name7 value              
#>    <chr>   <chr>      <chr>    <chr> <chr> <chr> <chr> <chr>              
#>  1 leagues id         <NA>     <NA>  <NA>  <NA>  <NA>  28                 
#>  2 leagues uid        <NA>     <NA>  <NA>  <NA>  <NA>  s:20~l:28          
#>  3 leagues name       <NA>     <NA>  <NA>  <NA>  <NA>  National Football ~
#>  4 leagues abbreviat~ <NA>     <NA>  <NA>  <NA>  <NA>  NFL                
#>  5 leagues slug       <NA>     <NA>  <NA>  <NA>  <NA>  nfl                
#>  6 leagues season     year     <NA>  <NA>  <NA>  <NA>  2018               
#>  7 leagues season     startDa~ <NA>  <NA>  <NA>  <NA>  2018-08-02T07:00Z  
#>  8 leagues season     endDate  <NA>  <NA>  <NA>  <NA>  2019-02-06T07:59Z  
#>  9 leagues season     type     id    <NA>  <NA>  <NA>  2                  
#> 10 leagues season     type     type  <NA>  <NA>  <NA>  2                  
#> # ... with 6,619 more rows
…
        name1 == "events" &
          name2 == "competitions" &
          name3 == "status" &
          name4 == "type" &
          name5 == "name"
      ) |
      (
        name1 == "events" &
          name2 == "competitions" &
          name3 == "competitors" &
          name4 == "score"
      )
  )
df_filt
#> # A tibble: 80 x 8
#>    name1  name2        name3      name4 name5 name6 name7 value           
#>    <chr>  <chr>        <chr>      <chr> <chr> <chr> <chr> <chr>           
#>  1 events shortName    <NA>       <NA>  <NA>  <NA>  <NA>  ATL @ PHI       
#>  2 events competitions date       <NA>  <NA>  <NA>  <NA>  2018-09-07T00:5~
#>  3 events competitions competito~ score <NA>  <NA>  <NA>  18              
#>  4 events competitions competito~ score <NA>  <NA>  <NA>  12              
#>  5 events competitions status     type  name  <NA>  <NA>  STATUS_FINAL    
#>  6 events shortName    <NA>       <NA>  <NA>  <NA>  <NA>  PIT @ CLE       
#>  7 events competitions date       <NA>  <NA>  <NA>  <NA>  2018-09-09T17:0~
#>  8 events competitions competito~ score <NA>  <NA>  <NA>  21              
#>  9 events competitions competito~ score <NA>  <NA>  <NA>  21              
#> 10 events competitions status     type  name  <NA>  <NA>  STATUS_FINAL    
#> # ... with 70 more rows
…
  mutate(status = if_else(name5 == "name", value, NA_character_)) %>%
  mutate(isscore = if_else(name4 == "score", TRUE, FALSE)) %>%
  mutate(datetime = if_else(
    name3 == "date",
    str_replace_all(value, "\\s?T\\s?", " ") %>% str_replace("Z$", ""),
    NA_character_
  )) %>%
  mutate(gm = if_else(
    is.na(isscore) &
      is.na(datetime) & is.na(status),
    value,
    NA_character_
  ))
df_clean1
#> # A tibble: 80 x 8
#>    name3    name4 name5 value       status    isscore datetime     gm     
#>    <chr>    <chr> <chr> <chr>       <chr>     <lgl>   <chr>        <chr>  
#>  1 <NA>     <NA>  <NA>  ATL @ PHI   <NA>      NA      <NA>         ATL @ ~
#>  2 date     <NA>  <NA>  2018-09-07~ <NA>      NA      2018-09-07 ~ <NA>   
#>  3 competi~ score <NA>  18          <NA>      TRUE    <NA>         <NA>   
#>  4 competi~ score <NA>  12          <NA>      TRUE    <NA>         <NA>   
#>  5 status   type  name  STATUS_FIN~ STATUS_F~ FALSE   <NA>         <NA>   
#>  6 <NA>     <NA>  <NA>  PIT @ CLE   <NA>      NA      <NA>         PIT @ ~
#>  7 date     <NA>  <NA>  2018-09-09~ <NA>      NA      2018-09-09 ~ <NA>   
#>  8 competi~ score <NA>  21          <NA>      TRUE    <NA>         <NA>   
#>  9 competi~ score <NA>  21          <NA>      TRUE    <NA>         <NA>   
#> 10 status   type  name  STATUS_FIN~ STATUS_F~ FALSE   <NA>         <NA>   
#> # ... with 70 more rows

With these columns created, we can use tidyr::fill() and dplyr::filter() in a strategic manner to get rid of all the NAs cluttering our tibble. Additionally, we can drop the dummy name columns that we created with the tidyr::separate() call before.

Code

df_clean2 <- df_clean1 %>% 
  fill(status, .direction = "up") %>%
  filter(status == "STATUS_FINAL") %>%
  fill(gm, .direction = "down") %>%
  fill(datetime, .direction = "down") %>%
  filter(name3 == "competitors") %>% 
  select(-matches("name[0-9]"))
df_clean2
#> # A tibble: 32 x 5
#>    value status       isscore datetime         gm       
#>    <chr> <chr>        <lgl>   <chr>            <chr>    
#>  1 18    STATUS_FINAL TRUE    2018-09-07 00:55 ATL @ PHI
#>  2 12    STATUS_FINAL TRUE    2018-09-07 00:55 ATL @ PHI
#>  3 21    STATUS_FINAL TRUE    2018-09-09 17:00 PIT @ CLE
#>  4 21    STATUS_FINAL TRUE    2018-09-09 17:00 PIT @ CLE
#>  5 23    STATUS_FINAL TRUE    2018-09-09 17:00 CIN @ IND
#>  6 34    STATUS_FINAL TRUE    2018-09-09 17:00 CIN @ IND
#>  7 27    STATUS_FINAL TRUE    2018-09-09 17:00 TEN @ MIA
#>  8 20    STATUS_FINAL TRUE    2018-09-09 17:00 TEN @ MIA
#>  9 24    STATUS_FINAL TRUE    2018-09-09 17:00 SF @ MIN 
#> 10 16    STATUS_FINAL TRUE    2018-09-09 17:00 SF @ MIN 
#> # ... with 22 more rows
…
