Tony’s Blog - Meta-Analytics for Soccer
…
bv <- resampled_player_season_variance |> 
  dplyr::group_by(season, metric) |> 
  dplyr::summarize(
    bv = mean(bv, na.rm = TRUE)
  ) |> 
  dplyr::ungroup() |> 
  dplyr::arrange(season, metric)

bv
#> # A tibble: 138 × 3
#>    season  metric                         bv
#>    <chr>   <chr>                       <dbl>
#>  1 2017/18 assists                  1.64    
#>  2 2017/18 blocks                  26.3     
#>  3 2017/18 carries               7712.      
#>  4 2017/18 gca                      4.65    
#>  5 2017/18 goal_conversion_rate     0.00625 
#>  6 2017/18 goals                    2.36    
#>  7 2017/18 interceptions           33.4     
#>  8 2017/18 npxg                     0.761   
#>  9 2017/18 pass_completion_rate     0.000639
#> 10 2017/18 passes_attempted     15725.      
#> # ℹ 128 more rows
…
Calculate seasonal variance, SV

pivoted_player_season_stats <- pivot_metric_columns(player_season_stats)

sv <- pivoted_player_season_stats |>
  dplyr::group_by(season, metric) |> 
  dplyr::summarize(
    sv = var(value, na.rm = TRUE)
  ) |> 
  dplyr::ungroup() |> 
  dplyr::arrange(season, metric)

sv
#> # A tibble: 138 × 3
#>    season  metric                        sv
#>    <chr>   <chr>                      <dbl>
#>  1 2017/18 assists                   4.33  
#>  2 2017/18 blocks                  186.    
#>  3 2017/18 carries              153542.    
#>  4 2017/18 gca                      19.3   
#>  5 2017/18 goal_conversion_rate      0.0120
#>  6 2017/18 goals                    12.4   
#>  7 2017/18 interceptions           319.    
#>  8 2017/18 npxg                      7.27  
#>  9 2017/18 pass_completion_rate      0.0112
#> 10 2017/18 passes_attempted     337383.    
#> # ℹ 128 more rows
…
Calculate discrimination

discrimination <- bv |> 
  dplyr::inner_join(
    sv,
    by = dplyr::join_by(season, metric)
  ) |> 
  dplyr::mutate(
    discrimination = 1 - bv / sv
  ) |> 
  dplyr::arrange(season, metric)

discrimination
#> # A tibble: 138 × 5
#>    season  metric                         bv          sv discrimination
#>    <chr>   <chr>                       <dbl>       <dbl>          <dbl>
#>  1 2017/18 assists                  1.64          4.33            0.621
#>  2 2017/18 blocks                  26.3         186.              0.859
#>  3 2017/18 carries               7712.       153542.              0.950
#>  4 2017/18 gca                      4.65         19.3             0.759
#>  5 2017/18 goal_conversion_rate     0.00625       0.0120          0.481
#>  6 2017/18 goals                    2.36         12.4             0.810
#>  7 2017/18 interceptions           33.4         319.              0.895
#>  8 2017/18 npxg                     0.761         7.27            0.895
#>  9 2017/18 pass_completion_rate     0.000639      0.0112          0.943
#> 10 2017/18 passes_attempted     15725.       337383.              0.953
#> # ℹ 128 more rows
…
wv
#> # A tibble: 23 × 2
#>    metric                         wv
#>    <chr>                       <dbl>
#>  1 assists                   2.71   
#>  2 blocks                   96.2    
#>  3 carries               77143.     
#>  4 gca                      10.0    
#>  5 goal_conversion_rate      0.00954
#>  6 goals                     5.75   
#>  7 interceptions           122.     
#>  8 npxg                      2.85   
#>  9 pass_completion_rate      0.00721
#> 10 passes_attempted     153729.     
#> # ℹ 13 more rows
…
Finally, we calculate “total variance”, \(TV\). This is the most straightforward of all our variance calculations, as it involves just a call to stats::var() for each metric on the empirical player-season stats.

Calculate total variance, TV

tv <- pivoted_player_season_stats |> 
  dplyr::group_by(metric) |>
  dplyr::summarize(
    tv = var(value, na.rm = TRUE)
  ) |> 
  dplyr::ungroup() |> 
  dplyr::arrange(metric)

tv
#> # A tibble: 23 × 2
#>    metric                        tv
#>    <chr>                      <dbl>
#>  1 assists                   4.16  
#>  2 blocks                  177.    
#>  3 carries              161078.    
#>  4 gca                      17.9   
#>  5 goal_conversion_rate      0.0128
#>  6 goals                    11.5   
#>  7 interceptions           252.    
#>  8 npxg                      6.86  
#>  9 pass_completion_rate      0.0179
#> 10 passes_attempted     339330.    
#> # ℹ 13 more rows
…
stability
#> # A tibble: 23 × 5
#>    metric                        bv          tv           wv stability
#>    <chr>                      <dbl>       <dbl>        <dbl>     <dbl>
#>  1 assists                  1.66         4.16        2.71        0.580
#>  2 blocks                  25.8        177.         96.2         0.533
#>  3 carries               7808.      161078.      77143.          0.548
#>  4 gca                      4.64        17.9        10.0         0.592
#>  5 goal_conversion_rate     0.00707      0.0128      0.00954     0.569
#>  6 goals                    2.38        11.5         5.75        0.629
#>  7 interceptions           27.8        252.        122.          0.577
#>  8 npxg                     0.746        6.86        2.85        0.656
#>  9 pass_completion_rate     0.00108      0.0179      0.00721     0.635
#> 10 passes_attempted     14995.      339330.     153729.          0.572
#> # ℹ 13 more rows
…
