Tony’s Blog - Improving Expected Points
…
Here’s a glance at the data frame I’m working with. Note that there is one row per shot.

library(dplyr)
shots |> 
  dplyr::select(
    shot_id,
    team,
    player,
    is_goal,
    pre_shot_game_state,
    .pred_yes, ## xg
    .pred_no   ## 1 - xg
  )

#> # A tibble: 56,872 × 7
#>    shot_id     team     player is_goal pre_shot_game_state .pred_yes .pred_no
#>    <chr>       <chr>    <chr>  <fct>   <fct>                   <dbl>    <dbl>
#>  1 0014076a-01 Arsenal  Henri… no      neutral                  0.03     0.97
#>  2 0014076a-02 Arsenal  Henri… no      neutral                  0.06     0.94
#>  3 0014076a-03 West Ha… Marko… no      neutral                  0.08     0.92
#>  4 0014076a-04 West Ha… Marko… no      neutral                  0.03     0.97
#>  5 0014076a-05 West Ha… Marko… yes     neutral                  0.05     0.95
#>  6 0014076a-06 Arsenal  Aaron… no      leading                  0.11     0.89
#>  7 0014076a-07 Arsenal  Nacho… yes     trailing                 0.6      0.4 
#>  8 0014076a-08 West Ha… Micha… no      neutral                  0.07     0.93
#>  9 0014076a-09 West Ha… Felip… no      neutral                  0.07     0.93
#> 10 0014076a-10 Arsenal  Shkod… no      neutral                  0.02     0.98
#> # ℹ 56,862 more rows
…
