…
As we should expect, a model using season-long xPts to predict final points outperforms one using season-long xGD as a feature, although maybe the difference between the two is smaller than we might have expected

#### With match-level outcome probabilities

First, we use the full understat shot data set and the custom functions from the prior post to calculate xPts by match.

```{r}
#| label: all_understat_xpts_by_match
#| eval: false
all_understat_xpts_by_match <- all_understat_shots |> 
  calculate_permuted_xg() |> 
  summarize_permuted_xg_by_match()
all_understat_xpts_by_match
#> # A tibble: 6,078 × 10
#>    match…¹ season date       is_home team  oppon…² prob_…³ prob_…⁴ prob_…⁵  xpts
#>      <dbl> <chr>  <date>     <lgl>   <chr> <chr>     <dbl>   <dbl>   <dbl> <dbl>
#>  1      81 2015/… 2015-08-08 FALSE   Tott… Manche…   0.399   0.321   0.280 1.36 
#>  2      81 2015/… 2015-08-08 TRUE    Manc… Totten…   0.399   0.280   0.321 1.24 
#>  3      82 2015/… 2015-08-08 FALSE   Asto… AFC Bo…   0.358   0.292   0.350 1.23 
#>  4      82 2015/… 2015-08-08 TRUE    AFC … Aston …   0.358   0.350   0.292 1.41 
#>  5      83 2015/… 2015-08-08 FALSE   Watf… Everton   0.425   0.270   0.305 1.24 
#>  6      83 2015/… 2015-08-08 TRUE    Ever… Watford   0.425   0.305   0.270 1.34 
#>  7      84 2015/… 2015-08-08 FALSE   Sund… Leices…   0.207   0.148   0.645 0.651
#>  8      84 2015/… 2015-08-08 TRUE    Leic… Sunder…   0.207   0.645   0.148 2.14 
#>  9      85 2015/… 2015-08-08 FALSE   Crys… Norwic…   0.224   0.635   0.141 2.13 
#> 10      85 2015/… 2015-08-08 TRUE    Norw… Crysta…   0.224   0.141   0.635 0.648
#> # … with 6,068 more rows, and abbreviated variable names ¹​match_id, ²​opponent,
#> #   ³​prob_draw, ⁴​prob_win, ⁵​prob_lose
```
…
all_understat_probs_by_match <- init_all_understat_probs_by_match |> 
  anti_join(
    understat_guaranteed_losses |> select(team, match_id, result),
    by = c('team', 'match_id', 'result')
  ) |> 
  bind_rows(
    understat_guaranteed_losses
  ) |> 
  arrange(season, team, match_id)
all_understat_probs_by_match
#> # A tibble: 18,234 × 5
#>    team    season  match_id result   prob
#>    <chr>   <chr>      <dbl> <chr>   <dbl>
#>  1 Arsenal 2014/15     4408 draw   0.0675
#>  2 Arsenal 2014/15     4408 win    0.914 
#>  3 Arsenal 2014/15     4408 lose   0.0183
#>  4 Arsenal 2014/15     4418 draw   0.159 
#>  5 Arsenal 2014/15     4418 win    0.795 
#>  6 Arsenal 2014/15     4418 lose   0.0454
#>  7 Arsenal 2014/15     4427 draw   0.323 
#>  8 Arsenal 2014/15     4427 win    0.467 
#>  9 Arsenal 2014/15     4427 lose   0.210 
#> 10 Arsenal 2014/15     4429 draw   0.259 
#> # … with 18,224 more rows
```
…
## back to normal processing
future::plan(future::sequential)

understat_sim_pts_by_season
#> # A tibble: 1,600,000 × 5
#>    season  team                 sim_idx   pts  rank
#>    <chr>   <chr>                  <int> <int> <int>
#>  1 2014/15 Chelsea                    1    75     1
#>  2 2014/15 Manchester City            1    75     2
#>  3 2014/15 Arsenal                    1    70     3
#>  4 2014/15 Manchester United          1    69     4
#>  5 2014/15 Stoke City                 1    69     5
#>  6 2014/15 Liverpool                  1    68     6
#>  7 2014/15 Southampton                1    68     7
#>  8 2014/15 West Ham United            1    67     8
#>  9 2014/15 Tottenham Hotspur          1    57     9
#> 10 2014/15 West Bromwich Albion       1    56    10
#> # … with 1,599,990 more rows
```
…
  arrange(season, team, desc(xrank)) |> 
  group_by(season, team) |> 
  mutate(
    inv_cumu_prop = cumsum(prop)
  ) |> 
  ungroup() |> 
  arrange(season, team, xrank) |> 
  group_by(season, team) |> 
  mutate(
    cumu_prop = cumsum(prop),
    .before = inv_cumu_prop
  ) |> 
  ungroup()
understat_sim_placings
#> # A tibble: 2,907 × 8
#>    season  team    xrank     n  xpts   prop cumu_prop inv_cumu_prop
#>    <chr>   <chr>   <int> <int> <dbl>  <dbl>     <dbl>         <dbl>
#>  1 2014/15 Arsenal     1  3897  80.8 0.390      0.390        1     
#>  2 2014/15 Arsenal     2  2561  75.4 0.256      0.646        0.610 
#>  3 2014/15 Arsenal     3  1790  71.7 0.179      0.825        0.354 
#>  4 2014/15 Arsenal     4   859  68.5 0.0859     0.911        0.175 
#>  5 2014/15 Arsenal     5   418  65.6 0.0418     0.952        0.0893
#>  6 2014/15 Arsenal     6   196  63.9 0.0196     0.972        0.0475
#>  7 2014/15 Arsenal     7   117  61.6 0.0117     0.984        0.0279
#>  8 2014/15 Arsenal     8    66  59.4 0.0066     0.990        0.0162
#>  9 2014/15 Arsenal     9    41  58.3 0.0041     0.994        0.0096
#> 10 2014/15 Arsenal    10    21  57.9 0.0021     0.997        0.0055
#> # … with 2,897 more rows
```
…
    )
  ) |> 
  dplyr::group_by(season, team) |> 
  dplyr::summarize(
    dplyr::across(c(goals, opponent_goals, pts), sum)
  ) |> 
  dplyr::ungroup() |> 
  dplyr::mutate(gd = goals - opponent_goals) |> 
  dplyr::arrange(season, desc(pts), desc(gd)) |> 
  dplyr::group_by(season) |> 
  dplyr::mutate(rank = row_number(desc(pts))) |> 
  dplyr::ungroup() |> 
  arrange(season, rank)
table
#> # A tibble: 160 × 7
#>    season  team              goals opponent_goals   pts    gd  rank
#>    <chr>   <chr>             <dbl>          <dbl> <int> <dbl> <int>
#>  1 2014/15 Chelsea              73             32    87    41     1
#>  2 2014/15 Manchester City      83             38    79    45     2
#>  3 2014/15 Arsenal              71             36    75    35     3
#>  4 2014/15 Manchester United    62             37    70    25     4
#>  5 2014/15 Tottenham Hotspur    58             53    64     5     5
#>  6 2014/15 Liverpool            52             48    62     4     6
#>  7 2014/15 Southampton          54             33    60    21     7
#>  8 2014/15 Swansea City         46             49    56    -3     8
#>  9 2014/15 Stoke City           48             45    54     3     9
#> 10 2014/15 Crystal Palace       47             51    48    -4    10
#> # … with 150 more rows
```
…
understat_sim_placings_with_actual_ranks |>
  select(-c(actual_xpts)) |> 
  mutate(across(ends_with('cumu_prop'), round, 2))
#> # A tibble: 2,907 × 8
#>    season  team    actual_rank xrank actual_pts  xpts cumu_prop inv_cumu_prop
#>    <chr>   <chr>         <int> <int>      <int> <dbl>     <dbl>         <dbl>
#>  1 2014/15 Arsenal           3     1         75  80.8      0.39          1   
#>  2 2014/15 Arsenal           3     2         75  75.4      0.65          0.61
#>  3 2014/15 Arsenal           3     3         75  71.7      0.82          0.35
#>  4 2014/15 Arsenal           3     4         75  68.5      0.91          0.18
#>  5 2014/15 Arsenal           3     5         75  65.6      0.95          0.09
#>  6 2014/15 Arsenal           3     6         75  63.9      0.97          0.05
#>  7 2014/15 Arsenal           3     7         75  61.6      0.98          0.03
#>  8 2014/15 Arsenal           3     8         75  59.4      0.99          0.02
#>  9 2014/15 Arsenal           3     9         75  58.3      0.99          0.01
#> 10 2014/15 Arsenal           3    10         75  57.9      1             0.01
#> # … with 2,897 more rows
```
…
