Tony’s Blog - Tired: PCA + kmeans, Wired: UMAP + GMM
…
  f_dimr = c('pca', 'umap'),
  f_clust = c('kmeans', 'mclust')
) %>%
  mutate(metrics = pmap(
    list(n, k, f_dimr, f_clust),
    ~ do_dimr_clust(
      df = df,
      n = ..1,
      k = ..2,
      f_dimr = ..3,
      f_clust = ..4
    )
  ))
metrics
#> # A tibble: 196 x 5
#>        n     k f     g      metrics         
#>    <int> <int> <chr> <chr>  <list>          
#>  1     2     2 pca   kmeans <tibble [1 x 4]>
#>  2     2     2 pca   gmm    <tibble [1 x 7]>
#>  3     2     2 umap  kmeans <tibble [1 x 4]>
#>  4     2     2 umap  gmm    <tibble [1 x 7]>
#>  5     2     3 pca   kmeans <tibble [1 x 4]>
#>  6     2     3 pca   gmm    <tibble [1 x 7]>
#>  7     2     3 umap  kmeans <tibble [1 x 4]>
#>  8     2     3 umap  gmm    <tibble [1 x 7]>
#>  9     2     4 pca   kmeans <tibble [1 x 4]>
#> 10     2     4 pca   gmm    <tibble [1 x 7]>
#> # ... with 186 more rows
…
UMAP shines relative to PCA according to accuracy, and GMM beats out kmeans in terms of log loss. Despite these conclusions, we still don’t have clear evidence that UMAP + GMM is the best 1-2 combo; nonetheless, we can at least feel good about its general strength.

Aside: Re-coding Clusters

I won’t bother to show all the code to generate the above plots since it’s mostly just broom::augmment() and {ggplot2}. But, if you have ever worked with supervised stuff like this (if we can call it that), you’ll know that figuring out which of your clusters correspond to your known groups can be difficult. In this case, I started from a variable holding the predicted .class and the true class (pos).

Code

assignments
#> # A tibble: 1,626 x 2
#>    .class pos  
#>     <int> <chr>
#>  1      1 D    
#>  2      2 D    
#>  3      3 M    
#>  4      3 M    
#>  5      4 AM   
#>  6      2 D    
#>  7      2 D    
#>  8      4 F    
#>  9      2 D    
#> 10      1 D    
#> # ... with 1,616 more rows
…
We first need to set up our data into the following format. (This is for 2-component, 6-cluster UMAP + GMM.)

Code

sims_int
#> # A tibble: 1,664 x 6
#>    player_1     player_2           comp_1 comp_2 value_1 value_2
#>    <chr>        <chr>               <int>  <int>   <dbl>   <dbl>
#>  1 Jadon Sancho Aaron Leya Iseka        1      1  -4.18  -5.14  
#>  2 Jadon Sancho Aaron Leya Iseka        2      2  -0.678  2.49  
#>  3 Jadon Sancho Aaron Ramsey            1      1  -4.18  -3.25  
#>  4 Jadon Sancho Aaron Ramsey            2      2  -0.678 -0.738 
#>  5 Jadon Sancho Abdoul Kader Bamba      1      1  -4.18  -3.40  
#>  6 Jadon Sancho Abdoul Kader Bamba      2      2  -0.678  0.0929
#>  7 Jadon Sancho Abdoulaye Doucouré      1      1  -4.18  -1.36  
#>  8 Jadon Sancho Abdoulaye Doucouré      2      2  -0.678 -2.66  
#>  9 Jadon Sancho Abdoulaye Touré         1      1  -4.18  -1.36  
#> 10 Jadon Sancho Abdoulaye Touré         2      2  -0.678 -2.89  
#> # ... with 1,654 more rows
Then the Euclidean distance calculation is fairly straightforward.

Code

sims_init %>% 
  group_by(player_1, player_2) %>% 
  summarize(
    d = sqrt(sum((value_1 - value_2)^2))
  ) %>% 
  ungroup() %>% 
  mutate(score = 1 - ((d - 0) / (max(d) - 0))) %>% 
  mutate(rnk = row_number(desc(score))) %>% 
  arrange(rnk) %>% 
  select(player = player_2, d, score, rnk)
#> # A tibble: 830 x 4
#>    player                  d score   rnk
#>    <chr>               <dbl> <dbl> <int>
#>  1 Alexis Sánchez     0.0581 0.994     1
#>  2 Riyad Mahrez       0.120  0.988     2
#>  3 Serge Gnabry       0.132  0.986     3
#>  4 Jack Grealish      0.137  0.986     4
#>  5 Pablo Sarabia      0.171  0.983     5
#>  6 Thomas Müller      0.214  0.978     6
#>  7 Leroy Sané         0.223  0.977     7
#>  8 Callum Hudson-Odoi 0.226  0.977     8
#>  9 Jesse Lingard      0.260  0.973     9
#> 10 Ousmane Dembélé    0.263  0.973    10
#> # ... with 820 more rows
…
  f_dimr = c('pca', 'umap'),
  f_clust = c('kmeans', 'mclust')
) %>%
  mutate(metrics = pmap(
    list(n, k, f_dimr, f_clust),
    ~ do_dimr_clust(
      df = df,
      n = ..1,
      k = ..2,
      f_dimr = ..3,
      f_clust = ..4
    )
  ))
metrics
#> # A tibble: 196 x 5
#>        n     k f     g      metrics         
#>    <int> <int> <chr> <chr>  <list>          
#>  1     2     2 pca   kmeans <tibble [1 x 4]>
#>  2     2     2 pca   gmm    <tibble [1 x 7]>
#>  3     2     2 umap  kmeans <tibble [1 x 4]>
#>  4     2     2 umap  gmm    <tibble [1 x 7]>
#>  5     2     3 pca   kmeans <tibble [1 x 4]>
#>  6     2     3 pca   gmm    <tibble [1 x 7]>
#>  7     2     3 umap  kmeans <tibble [1 x 4]>
#>  8     2     3 umap  gmm    <tibble [1 x 7]>
#>  9     2     4 pca   kmeans <tibble [1 x 4]>
#> 10     2     4 pca   gmm    <tibble [1 x 7]>
#> # ... with 186 more rows
```
…
UMAP shines relative to PCA according to accuracy, and GMM beats out kmeans in terms of log loss. Despite these conclusions, we still don't have clear evidence that UMAP + GMM is the best 1-2 combo; nonetheless, we can at least feel good about its general strength.

### Aside: Re-coding Clusters

I won't bother to show all the code to generate the above plots since it's mostly just `broom::augmment()` and `{ggplot2}`. But, if you have ever worked with supervised stuff like this (if we can call it that), you'll know that figuring out which of your clusters correspond to your known groups can be difficult. In this case, I started from a variable holding the predicted `.class` and the true class (`pos`).

```{r}
#| label: assignments
#| code-fold: show
assignments
#> # A tibble: 1,626 x 2
#>    .class pos  
#>     <int> <chr>
#>  1      1 D    
#>  2      2 D    
#>  3      3 M    
#>  4      3 M    
#>  5      4 AM   
#>  6      2 D    
#>  7      2 D    
#>  8      4 F    
#>  9      2 D    
#> 10      1 D    
#> # ... with 1,616 more rows
```
…
[^8]: fbref uses a different methodology, so perhaps it's unwise to compare to them.

We'll start with [Jadon Sancho](https://fbref.com/en/players/dbf053da/Jadon-Sancho), a highly discussed player at the moment (as a potential transfer).

```{=html}
<span style="max-width:100%; height:auto"><img src="jadon-sancho-fbref.PNG"></span>
```
We first need to set up our data into the following format. (This is for 2-component, 6-cluster UMAP + GMM.)

```{r}
#| label: sims_int
#| code-fold: show
sims_int
#> # A tibble: 1,664 x 6
#>    player_1     player_2           comp_1 comp_2 value_1 value_2
#>    <chr>        <chr>               <int>  <int>   <dbl>   <dbl>
#>  1 Jadon Sancho Aaron Leya Iseka        1      1  -4.18  -5.14  
#>  2 Jadon Sancho Aaron Leya Iseka        2      2  -0.678  2.49  
#>  3 Jadon Sancho Aaron Ramsey            1      1  -4.18  -3.25  
#>  4 Jadon Sancho Aaron Ramsey            2      2  -0.678 -0.738 
#>  5 Jadon Sancho Abdoul Kader Bamba      1      1  -4.18  -3.40  
#>  6 Jadon Sancho Abdoul Kader Bamba      2      2  -0.678  0.0929
#>  7 Jadon Sancho Abdoulaye Doucouré      1      1  -4.18  -1.36  
#>  8 Jadon Sancho Abdoulaye Doucouré      2      2  -0.678 -2.66  
#>  9 Jadon Sancho Abdoulaye Touré         1      1  -4.18  -1.36  
#> 10 Jadon Sancho Abdoulaye Touré         2      2  -0.678 -2.89  
#> # ... with 1,654 more rows
```
…
```{r}
#| label: sims
#| code-fold: show
sims_init %>% 
  group_by(player_1, player_2) %>% 
  summarize(
    d = sqrt(sum((value_1 - value_2)^2))
  ) %>% 
  ungroup() %>% 
  mutate(score = 1 - ((d - 0) / (max(d) - 0))) %>% 
  mutate(rnk = row_number(desc(score))) %>% 
  arrange(rnk) %>% 
  select(player = player_2, d, score, rnk)
#> # A tibble: 830 x 4
#>    player                  d score   rnk
#>    <chr>               <dbl> <dbl> <int>
#>  1 Alexis Sánchez     0.0581 0.994     1
#>  2 Riyad Mahrez       0.120  0.988     2
#>  3 Serge Gnabry       0.132  0.986     3
#>  4 Jack Grealish      0.137  0.986     4
#>  5 Pablo Sarabia      0.171  0.983     5
#>  6 Thomas Müller      0.214  0.978     6
#>  7 Leroy Sané         0.223  0.977     7
#>  8 Callum Hudson-Odoi 0.226  0.977     8
#>  9 Jesse Lingard      0.260  0.973     9
#> 10 Ousmane Dembélé    0.263  0.973    10
#> # ... with 820 more rows
```
…
