…
combined_data_abs_gd1 <- combined_team_summary |> 
  dplyr::left_join(
    gamestate_gd0_by_game |> dplyr::select(-date),
    by = dplyr::join_by(season, country, gender, tier, match_id, team)
  )

## boths dfs have the same format
rolling_r2s_gd0 <- combined_data_gd0 |> do_calculate_rolling_r2s()
rolling_r2s_abs_gd1 <- combined_data_abs_gd1 |> do_calculate_rolling_r2s()
#> # A tibble: 1,584 × 5
#>    league_group game_idx predictor                      target             r2
#>    <chr>           <int> <chr>                          <chr>           <dbl>
#>  1 Big 5               1 past_shot_ratio                future_g_ratio 0.187 
#>  2 Big 5               1 past_sot_ratio                 future_g_ratio 0.170 
#>  3 Big 5               1 past_g_ratio                   future_g_ratio 0.165 
#>  4 Big 5               1 past_xg_ratio                  future_g_ratio 0.182 
#>  5 Big 5               1 past_shot_neutral_ratio        future_g_ratio 0.156 
#>  6 Big 5               1 past_sot_neutral_ratio         future_g_ratio 0.0261
#>  7 Big 5               1 past_g_neutral_ratio           future_g_ratio 0.108 
#>  8 Big 5               1 past_xg_neutral_ratio          future_g_ratio 0.142 
#>  9 Big 5               1 past_xgot_neutral_ratio        future_g_ratio 0.110 
#> 10 Big 5               1 past_duration_leading_per_game future_g_ratio 0.129 
#> # ℹ 1,574 more rows
#> # ℹ Use `print(n = ...)` to see more rows
```
…
