…
```{r}
#| label: save-bv
#| include: false
qs::qsave(bv, file.path(PROJ_DIR, 'bv.qs'))
```

```{r}
#| label: glimpse-bv
#| code-fold: false
bv
#> # A tibble: 114 × 3
#>    season  metric                         bv
#>    <chr>   <chr>                       <dbl>
#>  1 2017/18 assists                  1.64    
#>  2 2017/18 blocks                  26.3     
#>  3 2017/18 gca                      4.65    
#>  4 2017/18 shot_conversion_rate     0.00625 
#>  5 2017/18 goals                    2.36    
#>  6 2017/18 interceptions           33.4     
#>  7 2017/18 npxg                     0.761   
#>  8 2017/18 pass_completion_rate     0.000639
#>  9 2017/18 passes_completed     10809.      
#> 10 2017/18 progressive_carries     65.6     
#> # ℹ 104 more rows
```
…
```{r}
#| label: save-sv
#| include: false
qs::qsave(sv, file.path(PROJ_DIR, 'sv.qs'))
```

```{r}
#| label: glimpse-sv
#| code-fold: false
sv
#> # A tibble: 114 × 3
#>    season  metric                        sv
#>    <chr>   <chr>                      <dbl>
#>  1 2017/18 assists                   4.33  
#>  2 2017/18 blocks                  186.    
#>  3 2017/18 gca                      19.3   
#>  4 2017/18 shot_conversion_rate      0.0120
#>  5 2017/18 goals                    12.4   
#>  6 2017/18 interceptions           319.    
#>  7 2017/18 npxg                      7.27  
#>  8 2017/18 pass_completion_rate      0.0112
#>  9 2017/18 passes_completed     231962.    
#> 10 2017/18 progressive_carries     944.    
#> # ℹ 104 more rows
```
…
```{r}
#| label: save-discrimination
#| include: false
qs::qsave(discrimination, file.path(PROJ_DIR, 'discrimination.qs'))
```

```{r}
#| label: glimpse-discrimination
#| code-fold: false
discrimination
#> # A tibble: 114 × 5
#>    season  metric                         bv          sv discrimination
#>    <chr>   <chr>                       <dbl>       <dbl>          <dbl>
#>  1 2017/18 assists                  1.64          4.33            0.621
#>  2 2017/18 blocks                  26.3         186.              0.859
#>  3 2017/18 gca                      4.65         19.3             0.759
#>  4 2017/18 shot_conversion_rate     0.00625       0.0120          0.481
#>  5 2017/18 goals                    2.36         12.4             0.810
#>  6 2017/18 interceptions           33.4         319.              0.895
#>  7 2017/18 npxg                     0.761         7.27            0.895
#>  8 2017/18 pass_completion_rate     0.000639      0.0112          0.943
#>  9 2017/18 passes_completed     10809.       231962.              0.953
#> 10 2017/18 progressive_carries     65.6         944.              0.931
#> # ℹ 104 more rows
```
…
