Tony’s Blog - Shooting Performance Likeliness
…
One way to check on the robustness of this approach is to see what the distribution of unlikeness \(\Pi^-\) looks like across all players \(P\). We should expect a distribution that looks relatively uniform–in other words, about 10% of players should have a 90th percentile unlikely outcomes (i.e. very likely), 10% of players should have a 10th percentile unlikely outcome (i.e. very unlikely), and so on.

HISTOGRAM HERE

Indeed, the histogram below follows a fairly uniform distribution, with a bit of irregularity at the very edges.

Who exactly is in the edges of the spectrum?

Well, notably, Manchester City’s striker Erling Haaland shows up as having the most unlikely outcome for the 2023/24 season using this methodology.

All output from Approach 1

all_resampled_props
#> # A tibble: 593 × 6
#>    player              prior_o target_o prior_shots target_shots prop_lte
#>    <chr>                 <dbl>    <dbl>       <int>        <int>    <dbl>
#>  1 Erling Haaland         1.26    0.791         313           98    0.004
#>  2 Amine Harit            1.27    0.262         107           33    0.01 
#>  3 Pierre-Emerick Aub…    1.07    0.606         405           91    0.01 
#>  4 Téji Savanier          1.42    0.282         276           72    0.01 
#>  5 Antonio Sanabria       1.05    0.386         269           47    0.014
#>  6 Alex Baena             1.54    0.348          61           57    0.016
#>  7 Elye Wahi              1.38    0.753         114           47    0.017
#>  8 Kevin Behrens          1.39    0.673          51           52    0.019
#>  9 Ciro Immobile          1.23    0.383         635           41    0.02 
#> 10 Ansu Fati              1.31    0.430         125           34    0.024
#> # ℹ 583 more rows
#> # ℹ Use `print(n = ...)` to see more rows
…
